id,name,model_id:id,group_id:id,perm_read,perm_write,perm_create,perm_unlink
access_mail_message_all,mail.message.all,model_mail_message,,1,0,0,0
access_mail_message_portal,mail.message.portal,model_mail_message,base.group_portal,1,1,1,1
access_mail_message_user,mail.message.user,model_mail_message,base.group_user,1,1,1,1
access_mail_mail_all,mail.mail.all,model_mail_mail,,1,0,0,0
access_mail_mail_portal,mail.mail.portal,model_mail_mail,base.group_portal,1,1,1,0
access_mail_mail_user,mail.mail.user,model_mail_mail,base.group_user,1,1,1,0
access_mail_mail_system,mail.mail.system,model_mail_mail,base.group_system,1,1,1,1
access_mail_followers_all,mail.followers.all,model_mail_followers,,1,0,0,0
access_mail_followers_portal,mail.followers.portal,model_mail_followers,base.group_portal,1,1,0,0
access_mail_followers_user,mail.followers.user,model_mail_followers,base.group_user,1,1,0,0
access_mail_followers_system,mail.followers.system,model_mail_followers,base.group_system,1,1,1,1
access_mail_notification_all,mail.notification.all,model_mail_notification,,1,0,0,0
access_mail_notification_portal,mail.notification.portal,model_mail_notification,base.group_portal,1,1,1,0
access_mail_notification_user,mail.notification.user,model_mail_notification,base.group_user,1,1,1,0
access_mail_notification_system,mail.notification.system,model_mail_notification,base.group_system,1,1,1,1
access_mail_group_all,mail.group.all,model_mail_group,,1,0,0,0
access_mail_group_user,mail.group.user,model_mail_group,base.group_user,1,1,1,1
access_mail_alias_all,mail.alias.all,model_mail_alias,,1,0,0,0
access_mail_alias_user,mail.alias.user,model_mail_alias,base.group_user,1,1,1,0
access_mail_alias_system,mail.alias.system,model_mail_alias,base.group_system,1,1,1,1
access_mail_message_subtype_all,mail.message.subtype.all,model_mail_message_subtype,,1,0,0,0
access_mail_message_subtype_system,mail.message.subtype.system,model_mail_message_subtype,base.group_system,1,1,1,1
access_mail_tracking_value_all,mail.tracking.value.all,model_mail_tracking_value,,1,0,0,0
access_mail_tracking_value_portal,mail.tracking.value.portal,model_mail_tracking_value,base.group_portal,1,1,1,1
access_mail_tracking_value_user,mail.tracking.value.user,model_mail_tracking_value,base.group_user,1,1,1,1
access_mail_tracking_value_system,mail.tracking.value.system,model_mail_tracking_value,base.group_system,1,1,1,1
access_mail_thread_all,mail.thread.all,model_mail_thread,,1,1,1,1
access_publisher_warranty_contract_all,publisher.warranty.contract.all,model_publisher_warranty_contract,,1,1,1,1
access_mail_template,mail.template,model_mail_template,base.group_user,1,1,1,0
access_mail_template_system,mail.template_system,model_mail_template,base.group_system,1,1,1,1